graph LR
  linkStyle default fill:#ffffff

  subgraph diagram ["Software System - Containers"]
    style diagram fill:#ffffff,stroke:#ffffff

    1["<div style='font-weight: bold'>User</div><div style='font-size: 70%; margin-top: 0px'>[Person]</div>"]
    style 1 fill:#dddddd,stroke:#9a9a9a,color:#000000

    subgraph 2 [Software System]
      style 2 fill:#ffffff,stroke:#9a9a9a,color:#9a9a9a

      3["<div style='font-weight: bold'>Web Application</div><div style='font-size: 70%; margin-top: 0px'>[Container]</div>"]
      style 3 fill:#dddddd,stroke:#9a9a9a,color:#000000
      4["<div style='font-weight: bold'>Database Schema</div><div style='font-size: 70%; margin-top: 0px'>[Container]</div>"]
      style 4 fill:#dddddd,stroke:#9a9a9a,color:#000000
    end

    1-. "<div>Uses</div><div style='font-size: 70%'></div>" .->3
    3-. "<div>Reads from and writes to</div><div style='font-size: 70%'></div>" .->4
  end
  